{
    "avg": {
        "wmc": 9.53,
        "ccn": 5.91,
        "bugs": 0.14,
        "kanDefect": 0.47,
        "relativeSystemComplexity": 65.11,
        "relativeDataComplexity": 1.64,
        "relativeStructuralComplexity": 63.47,
        "volume": 408.13,
        "commentWeight": 41.53,
        "intelligentContent": 56.92,
        "lcom": 1.6,
        "instability": 0.89,
        "afferentCoupling": 0.3,
        "efferentCoupling": 2.75,
        "difficulty": 7.35,
        "mi": 103.23,
        "distance": 0.06,
        "incomingCDep": 1.07,
        "incomingPDep": 0.79,
        "outgoingCDep": 5.93,
        "outgoingPDep": 4.86,
        "classesPerPackage": 4.43
    },
    "sum": {
        "loc": 4607,
        "cloc": 2153,
        "lloc": 2456,
        "nbMethods": 156,
        "nbClasses": 57,
        "nbInterfaces": 5,
        "nbPackages": 14,
        "violations": {
            "total": 12,
            "information": 2,
            "warning": 5,
            "error": 5,
            "critical": 0
        }
    }
}